// Jest Snapshot v1, https://goo.gl/fbAQLP

exports[`CommentTree renders the component 1`] = `
<div>
  <comment-stub comment="[object Object]"></comment-stub>
  <comment-stub comment="[object Object]"></comment-stub>
</div>
`;
