// Jest Snapshot v1, https://goo.gl/fbAQLP

exports[`PostsView renders the component 1`] = `
<div>
  <h2 class="subreddit-name">
    r/gifs
  </h2> <button class="refresh">
    Refresh
  </button>
  <post-list-stub posts="[object Object],[object Object]"></post-list-stub>
</div>
`;
